<?xml version="1.0" encoding="utf-8"?>
<!-- Generator: Adobe Illustrator 18.1.1, SVG Export Plug-In . SVG Version: 6.00 Build 0)  -->
<svg version="1.1" id="Layer_1" xmlns="http://www.w3.org/2000/svg" xmlns:xlink="http://www.w3.org/1999/xlink" x="0px" y="0px"
	 viewBox="0 0 58 114" enable-background="new 0 0 58 114" xml:space="preserve">
<g>
	<path fill="#1F5AB2" d="M57.1,46.9c0.5,0,0.9-0.4,0.9-0.9v-32c0-0.2-0.1-0.5-0.3-0.6L48,3.6c-0.1-0.1-0.3-0.2-0.6-0.2H27V3.2
		c0-1.5-1.2-2.8-2.8-2.8H2.8C1.2,0.5,0,1.7,0,3.2v29.3c0,1.5,1.2,2.8,2.8,2.8h7v22.3c0,0.5,0.4,0.9,0.9,0.9h46.5
		c0.5,0,0.9-0.4,0.9-0.9v-6.8c0-0.5-0.4-0.9-0.9-0.9c-0.5,0-0.9,0.4-0.9,0.9v5.9H11.5V35.3h12.8c1.5,0,2.8-1.2,2.8-2.8V16.9
		c0-0.5-0.4-0.9-0.9-0.9s-0.9,0.4-0.9,0.9v15.6c0,0.5-0.4,0.9-0.9,0.9H2.8c-0.5,0-0.9-0.4-0.9-0.9V3.2c0-0.5,0.4-0.9,0.9-0.9h21.5
		c0.5,0,0.9,0.4,0.9,0.9v8.8c0,0.5,0.4,0.9,0.9,0.9c0.5,0,0.9-0.4,0.9-0.9V5.2h19.5c0,0,0,0,0,0.1V14c0,0.5,0.4,0.9,0.9,0.9H56
		c0,0,0,0,0.1,0V46C56.2,46.5,56.6,46.9,57.1,46.9L57.1,46.9z M48.4,13.1V6.5l6.6,6.6C55,13.1,48.4,13.1,48.4,13.1z"/>
	<path fill="#1F5AB2" d="M22.5,42.2h-6.1c-0.5,0-0.9,0.4-0.9,0.9c0,0.5,0.4,0.9,0.9,0.9h6.1c0.5,0,0.9-0.4,0.9-0.9
		C23.4,42.5,23,42.2,22.5,42.2L22.5,42.2z"/>
	<path fill="#1F5AB2" d="M22.5,47h-6.1c-0.5,0-0.9,0.4-0.9,0.9c0,0.5,0.4,0.9,0.9,0.9h6.1c0.5,0,0.9-0.4,0.9-0.9
		C23.4,47.4,23,47,22.5,47L22.5,47z"/>
	<path fill="#1F5AB2" d="M40.6,28.6c-3.7,0-7.2,1.5-9.7,4.1c-0.4,0.4-0.3,1,0,1.3c0.4,0.4,1,0.3,1.3,0c2.3-2.4,5.2-3.6,8.5-3.6
		c6.5,0,11.7,5.2,11.7,11.7s-5.2,11.7-11.7,11.7s-11.7-5.2-11.7-11.7c0-1.9,0.4-3.7,1.3-5.4c0.2-0.4,0.1-1-0.4-1.3
		c-0.4-0.2-1-0.1-1.2,0.4c-1,1.9-1.5,4-1.5,6.2c0,7.5,6.1,13.5,13.5,13.5c7.5,0,13.5-6.1,13.5-13.5C54.2,34.7,48.1,28.6,40.6,28.6
		L40.6,28.6z"/>
	<path fill="#1F5AB2" d="M42.7,41.3h-1.4v-5h3.2c0.5,0,0.9-0.4,0.9-0.9c0-0.5-0.4-0.9-0.9-0.9h-3.2v-1.1c0-0.5-0.4-0.9-0.9-0.9
		c-0.5,0-0.9,0.4-0.9,0.9v1.1h-0.9c-1.5,0-2.8,1.2-2.8,2.8v3.1c0,1.5,1.2,2.8,2.8,2.8h0.9v4.9h-2.8c-0.5,0-0.9,0.4-0.9,0.9
		s0.4,0.9,0.9,0.9h2.8v1.1c0,0.5,0.4,0.9,0.9,0.9c0.5,0,0.9-0.4,0.9-0.9v-1.1h1.4c1.5,0,2.8-1.2,2.8-2.8v-3
		C45.4,42.5,44.2,41.3,42.7,41.3L42.7,41.3z M39.5,41.2h-0.9l0,0c-0.5,0-0.9-0.4-0.9-0.9v-3.1c0-0.5,0.4-0.9,0.9-0.9h0.9V41.2
		L39.5,41.2z M43.5,47.1c0,0.5-0.4,0.9-0.9,0.9h-1.4V43h1.4l0,0c0.5,0,0.9,0.4,0.9,0.9C43.5,43.9,43.5,47.1,43.5,47.1z"/>
	<path fill="#1F5AB2" d="M23.2,3.4H3.8c-0.5,0-0.9,0.4-0.9,0.9v4.8c0,0.5,0.4,0.9,0.9,0.9h19.4c0.5,0,0.9-0.4,0.9-0.9V4.3
		C24.1,3.8,23.7,3.4,23.2,3.4L23.2,3.4z M22.3,8.2H4.7v-3h17.6V8.2z"/>
	<path fill="#1F5AB2" d="M7.7,11.1H3.8c-0.5,0-0.9,0.4-0.9,0.9v3.8c0,0.5,0.4,0.9,0.9,0.9h3.8c0.5,0,0.9-0.4,0.9-0.9V12
		C8.6,11.6,8.2,11.1,7.7,11.1L7.7,11.1z M6.8,15H4.7V13h2.1V15z"/>
	<path fill="#1F5AB2" d="M15.4,11.1h-3.8c-0.5,0-0.9,0.4-0.9,0.9v3.8c0,0.5,0.4,0.9,0.9,0.9h3.8c0.5,0,0.9-0.4,0.9-0.9V12
		C16.3,11.6,15.9,11.1,15.4,11.1L15.4,11.1z M14.5,15h-2.1V13h2.1C14.5,13,14.5,15,14.5,15z"/>
	<path fill="#1F5AB2" d="M23.2,11.1h-3.8c-0.5,0-0.9,0.4-0.9,0.9v3.8c0,0.5,0.4,0.9,0.9,0.9h3.8c0.5,0,0.9-0.4,0.9-0.9V12
		C24.1,11.6,23.7,11.1,23.2,11.1L23.2,11.1z M22.3,15h-2.1V13h2.1V15z"/>
	<path fill="#1F5AB2" d="M7.7,18.9H3.8c-0.5,0-0.9,0.4-0.9,0.9v3.8c0,0.5,0.4,0.9,0.9,0.9h3.8c0.5,0,0.9-0.4,0.9-0.9v-3.8
		C8.6,19.3,8.2,18.9,7.7,18.9L7.7,18.9z M6.8,22.8H4.7v-2.1h2.1V22.8z"/>
	<path fill="#1F5AB2" d="M15.4,18.9h-3.8c-0.5,0-0.9,0.4-0.9,0.9v3.8c0,0.5,0.4,0.9,0.9,0.9h3.8c0.5,0,0.9-0.4,0.9-0.9v-3.8
		C16.3,19.3,15.9,18.9,15.4,18.9L15.4,18.9z M14.5,22.8h-2.1v-2.1h2.1C14.5,20.7,14.5,22.8,14.5,22.8z"/>
	<path fill="#1F5AB2" d="M7.7,26.6H3.8c-0.5,0-0.9,0.4-0.9,0.9v3.8c0,0.5,0.4,0.9,0.9,0.9h3.8c0.5,0,0.9-0.4,0.9-0.9v-3.8
		C8.6,27,8.2,26.6,7.7,26.6L7.7,26.6z M6.8,30.6H4.7v-2.1h2.1V30.6z"/>
	<path fill="#1F5AB2" d="M15.4,26.6h-3.8c-0.5,0-0.9,0.4-0.9,0.9v3.8c0,0.5,0.4,0.9,0.9,0.9h3.8c0.5,0,0.9-0.4,0.9-0.9v-3.8
		C16.3,27,15.9,26.6,15.4,26.6L15.4,26.6z M14.5,30.6h-2.1v-2.1h2.1C14.5,28.5,14.5,30.6,14.5,30.6z"/>
	<path fill="#1F5AB2" d="M23.2,18.9h-3.8c-0.5,0-0.9,0.4-0.9,0.9v11.6c0,0.5,0.4,0.9,0.9,0.9h3.8c0.5,0,0.9-0.4,0.9-0.9V19.8
		C24.1,19.3,23.7,18.9,23.2,18.9L23.2,18.9z M22.3,30.6h-2.1v-9.8h2.1V30.6z"/>
	<path fill="#1F5AB2" d="M53.9,21.9L49,17.2c-0.4-0.3-1-0.3-1.3,0c-0.3,0.4-0.3,1,0,1.3l4.3,4l-0.8,0.8L38.1,10.2
		c-0.1-0.1-0.3-0.2-0.5-0.3l-3.3-0.6l-1.6-1.8c-0.3-0.4-0.9-0.4-1.3-0.1c-0.4,0.3-0.4,0.9-0.1,1.3c0,0,1.9,2.1,2,2.1l0.6,2.9
		c0,0.2,0.1,0.3,0.3,0.5l14.5,14.5c0.5,0.5,1.3,0.8,2,0.8s1.4-0.3,2-0.8l0.2-0.2c1.1-1.1,1.1-2.8,0-3.8l-0.1-0.1l1.4-1.4
		C54.3,22.9,54.3,22.2,53.9,21.9L53.9,21.9z M35.6,13.2l-0.4-1.8l1.8,0.4l8.7,8.7L44.2,22L35.6,13.2z M51.3,27.3l-0.2,0.2
		c-0.4,0.4-1,0.4-1.3,0l-4.2-4.2l1.5-1.5l4.2,4.2C51.6,26.4,51.6,26.9,51.3,27.3L51.3,27.3z"/>
</g>
<g id="Ellipse_1_copy_17">
	<path fill="#1F5AB2" d="M28.9,82.1c8.1,0,14.7,6.6,14.7,14.7s-6.6,14.7-14.7,14.7s-14.7-6.6-14.7-14.7S20.8,82.1,28.9,82.1
		 M28.9,80.1c-9.2,0-16.7,7.5-16.7,16.7s7.5,16.7,16.7,16.7s16.7-7.5,16.7-16.7S38.1,80.1,28.9,80.1L28.9,80.1z"/>
</g>
<path id="II" d="M26.3,101.5h1.2v-9.6h-1.2V101.5z M30.3,101.5h1.2v-9.6h-1.2V101.5L30.3,101.5z"/>
</svg>
