<?xml version="1.0" encoding="utf-8"?>
<!-- Generator: Adobe Illustrator 18.1.1, SVG Export Plug-In . SVG Version: 6.00 Build 0)  -->
<svg version="1.1" id="Layer_1" xmlns="http://www.w3.org/2000/svg" xmlns:xlink="http://www.w3.org/1999/xlink" x="0px" y="0px"
	 viewBox="0 0 1280 800" enable-background="new 0 0 1280 800" xml:space="preserve">
<g>
	<path fill="#477CB1" d="M492,412.3l-9.3,52.1c-0.9,5.2,1.1,10.4,5.4,13.4c2.3,1.8,5.2,2.5,7.9,2.5c2.3,0,4.5-0.5,6.3-1.6l54.4-29.2
		c11.8,51,68.5,89.8,136.2,89.8c4.8,0,9.5-0.2,14.3-0.7l70,37.6c2,1.1,4.3,1.6,6.3,1.6c2.7,0,5.7-0.9,7.9-2.5
		c4.3-2.9,6.3-8.2,5.4-13.4l-9.3-52.1c27.9-20.6,43.7-49.2,43.7-79.8c0-50.8-44.7-95-107-106.5c-5.9-56-65.5-100.4-138-100.4
		C510.1,223,448,272,448,332.2C448.2,363.1,464.1,391.9,492,412.3L492,412.3z M804.5,429.9c0,23.8-14.1,46.5-38.8,62.1
		c-4.5,2.9-7,8.4-6.1,13.8l5.9,33.1l-49-26.3c-2.5-1.4-5.2-1.8-7.9-1.6c-5.2,0.5-10.7,0.9-15.6,0.9c-56,0-102.5-30.6-110.2-70.3h3.6
		c68.5,0,125.3-39.4,136.5-90.9C770.8,360.8,804.5,393.2,804.5,429.9L804.5,429.9z M586.7,250.4c61.4,0,111.3,36.7,111.3,82.1
		c0,45.3-49.9,82.1-111.3,82.1c-5,0-10.4-0.2-15.6-0.9c-2.7-0.2-5.4,0.2-7.9,1.6l-49,26.3l5.9-33.1c0.9-5.4-1.4-10.9-6.1-13.8
		c-24.7-15.6-38.8-38.3-38.8-62.1C475.4,287.4,525.3,250.4,586.7,250.4L586.7,250.4z M586.7,250.4"/>
</g>
</svg>
