<?xml version="1.0" encoding="utf-8"?>
<!-- Generator: Adobe Illustrator 18.1.1, SVG Export Plug-In . SVG Version: 6.00 Build 0)  -->
<svg version="1.1" id="Layer_1" xmlns="http://www.w3.org/2000/svg" xmlns:xlink="http://www.w3.org/1999/xlink" x="0px" y="0px"
	 viewBox="0 0 1280 800" enable-background="new 0 0 1280 800" xml:space="preserve">
<g>
	<path fill="#477CB1" d="M639.2,259C577.9,259,528,308.9,528,370.2c0,22.6,6.7,44.4,19.5,62.9c11.8,17.1,27.9,30.5,46.8,38.8
		l36.2,64c1.8,3.1,5.1,5.1,8.7,5.1c3.6,0,6.9-1.9,8.7-5.1l36.2-64c18.9-8.3,35-21.7,46.8-38.8c12.8-18.6,19.5-40.3,19.5-62.9
		C750.4,308.9,700.5,259,639.2,259L639.2,259z M673.3,454.8c-2.1,0.8-3.8,2.4-5,4.3l-29.2,51.6L610,459.1c-1.1-2-2.9-3.5-5-4.3
		c-34.7-14-57.1-47.2-57.1-84.6c0-50.3,40.9-91.2,91.2-91.2s91.2,40.9,91.2,91.2C730.4,407.6,708,440.8,673.3,454.8L673.3,454.8z
		 M673.3,454.8"/>
	<path fill="#477CB1" d="M639.2,327.6c-23.2,0-42,18.8-42,42c0,23.2,18.8,42,42,42s42-18.8,42-42
		C681.2,346.4,662.4,327.6,639.2,327.6L639.2,327.6z M639.2,391.6c-12.1,0-22-9.9-22-22c0-12.1,9.9-22,22-22c12.1,0,22,9.9,22,22
		C661.2,381.7,651.3,391.6,639.2,391.6L639.2,391.6z M639.2,391.6"/>
</g>
</svg>
