<?xml version="1.0" encoding="utf-8"?>
<!-- Generator: Adobe Illustrator 18.1.1, SVG Export Plug-In . SVG Version: 6.00 Build 0)  -->
<svg version="1.1" id="Layer_1" xmlns="http://www.w3.org/2000/svg" xmlns:xlink="http://www.w3.org/1999/xlink" x="0px" y="0px"
	 viewBox="0 0 1280 800" enable-background="new 0 0 1280 800" xml:space="preserve">
<path fill="#477CB1" d="M499.2,301.4C482.1,285,458.5,276,432.7,276c-39.5,0-63.7,16.2-77.1,29.7c-16.5,16.7-26,38.9-26,60.9
	c0,27.6,11.6,48.8,30.9,56.7c1.3,0.5,2.6,0.8,3.9,0.8c4.1,0,7.3-2.7,8.4-6.9c0.7-2.5,2.2-8.5,2.8-11.1c1.4-5.2,0.3-7.7-2.8-11.3
	c-5.6-6.6-8.2-14.4-8.2-24.6c0-30.3,22.5-62.4,64.3-62.4c33.1,0,53.7,18.8,53.7,49.1c0,19.1-4.1,36.8-11.6,49.9
	c-5.2,9.1-14.3,19.9-28.4,19.9c-6.1,0-11.5-2.5-15-6.8c-3.3-4.1-4.3-9.4-3-14.9c1.5-6.3,3.5-12.8,5.4-19.1
	c3.6-11.5,6.9-22.4,6.9-31.1c0-14.8-9.1-24.8-22.7-24.8c-17.3,0-30.8,17.5-30.8,39.9c0,11,2.9,19.2,4.2,22.3
	c-2.2,9.2-15.1,64-17.5,74.3c-1.4,6-10,53.6,4.2,57.4c15.9,4.3,30.1-42.1,31.5-47.3c1.2-4.3,5.3-20.4,7.8-30.3
	c7.7,7.4,20,12.4,32,12.4c22.6,0,43-10.2,57.3-28.7c13.9-17.9,21.5-42.9,21.5-70.4C524.5,338,515.3,316.8,499.2,301.4L499.2,301.4z
	 M499.2,301.4"/>
</svg>
