<?xml version="1.0" encoding="utf-8"?>
<!-- Generator: Adobe Illustrator 18.1.1, SVG Export Plug-In . SVG Version: 6.00 Build 0)  -->
<svg version="1.1" id="Layer_1" xmlns="http://www.w3.org/2000/svg" xmlns:xlink="http://www.w3.org/1999/xlink" x="0px" y="0px"
	 viewBox="0 0 55 119" enable-background="new 0 0 55 119" xml:space="preserve">
<path fill="#FFFFFF" d="M53.7,61.6c-15.9,0-31.8,0-47.6,0c-0.8-0.3-1-0.5-1-1.5c0-4.1,0-8.3,0-12.4c0-0.3-0.2-0.7-0.3-1
	C3.4,45.6,2.2,44.2,1,43c-0.7-0.7-0.7-1.2,0-1.9c0.3-0.3,0.5-0.5,0.8-0.8c0-0.2,0-0.2,0-0.2c-0.5-0.5-0.8-0.8-1.4-1.4
	c-0.7-0.7-0.7-1.2,0-1.9c1-1,2-2,3.2-3.2c0.5-0.5,0.8-0.8,1.7-0.5c0-0.3,0-0.5,0-0.8c0-10.3,0-20.7,0-30.8c0-1,0.2-1.2,1-1.5
	C22.4,0,38.3,0,54,0c0.7,0.3,0.8,0.7,0.8,1.4c0,19.5,0,39.1,0,58.6C54.5,61,54.4,61.3,53.7,61.6z M7.1,45.7c0,4.7,0,9.3,0,13.7
	c15.2,0,30.3,0,45.4,0c0-19.1,0-38.3,0-57.2c-15.2,0-30.3,0-45.6,0c0,0.3,0,0.5,0,0.7c0,10.5,0,21,0,31.7c0,0.5,0.2,0.8,0.5,1.2
	c4.6,4.6,9,9,13.5,13.5c0.7,0.7,0.7,1.2,0,1.9c-0.3,0.3-0.7,0.7-1,1c0.3,0.2,0.5,0.5,0.7,0.7c0.2,0.2,0.5,0.3,0.7,0.7
	c0.3,0.3,0.7,0.8,0.3,1.4c-0.3,0.5-1,0.7-1.7,0c-0.5-0.3-0.8-0.8-1.4-1.4c-0.3,0.3-0.5,0.7-0.8,0.8c-0.7,0.7-1.2,0.7-2,0
	c-2.7-2.7-5.6-5.6-8.3-8.3C7.5,46.1,7.3,45.9,7.1,45.7z M4.7,40.5C6.3,42,8,43.7,9.5,45.2c0.7-0.7,1.5-1.5,2.2-2.2
	c-1.5-1.5-3.2-3.2-4.7-4.7C6.3,39,5.4,39.6,4.7,40.5z M13.7,49.5c1,1,2,2,3,3c0.7-0.7,1.5-1.5,2.2-2.2c-1-1-2-2-3-3
	C15.2,47.9,14.4,48.6,13.7,49.5z M14.2,45.7c-0.3-0.3-0.7-0.8-1-1.2c-0.8,0.8-1.5,1.5-2.2,2.2c0.3,0.3,0.7,0.7,1.2,1.2
	C12.9,47.1,13.5,46.4,14.2,45.7z M5.2,36.7c-0.3-0.3-0.5-0.7-0.7-1c-0.8,0.8-1.5,1.5-2.4,2.4C2.5,38.4,2.9,38.8,3,39
	C3.9,38.1,4.6,37.4,5.2,36.7z M2.9,42.2C2.9,42.2,3,42.2,2.9,42.2c0.8,0.5,1.5,1.4,2.2,2c-0.2-1-1.4-1.5-1.9-2.4C3,42,3,42,2.9,42.2
	z"/>
<path fill="#FFFFFF" d="M45.4,49.3c0.3-0.7,0.5-1.2,0.7-1.7c0.3-1,1-1.2,1.9-0.5c1.2,1,2,2,1.9,3.7c0,0.8-0.5,1.4-1,1.9
	c-0.3,0.3-0.8,0.3-1.4-0.2c-0.3-0.3-0.3-0.8,0-1.4c0.5-0.8,0.5-1,0-1.7c-0.2,0.3-0.2,0.5-0.3,0.7c-0.7,0.7-1.2,1.5-1.9,2.2
	c-0.3,0.3-1,0.7-1.5,0.2c-0.5-0.3-0.3-0.8-0.3-1.4c0-0.2,0-0.3,0.2-0.5c-0.5,0.5-1,1-1.5,1.4c-0.8,0.7-1.9,0.8-2.9,0.3
	c-1-0.5-1.7-1.5-1.9-2.7c0-1,0.2-1.9,0.7-2.7c0.3-0.8,0.8-1.5,1.2-2.4c0.3-0.8-0.2-1.5-1-1.2c-0.7,0.2-1.2,0.3-1.7,0.7
	c-2.2,1.2-3.9,2.7-5.4,4.6c-0.7,0.8-1.4,1.7-1.9,2.7c-0.3,0.5-0.8,0.8-1.4,0.5c-0.5-0.2-0.7-0.8-0.5-1.4c0.3-0.8,0.8-1.5,1.4-2.2
	c1.9-2.2,3.9-4.1,6.3-5.6c1.2-0.7,2.4-1.2,3.9-1.2c1.5,0.2,3.2,1.7,2.4,3.7c-0.3,0.8-0.8,1.9-1.4,2.7c-0.2,0.3-0.3,0.7-0.3,1.2
	c-0.2,0.7,0.2,1.4,0.7,1.5c0.3,0,0.7-0.2,0.8-0.3c0.8-0.7,1.2-1.7,1.5-2.7c0.3-0.8,0.8-1.2,1.5-0.8c0.2,0.2,0.5,0.3,0.5,0.7
	C44.9,48.1,45,48.8,45.4,49.3z"/>
<path fill="#FFFFFF" d="M29.8,10.8c-5.4,0-10.7,0-16.1,0c-0.3,0-0.7,0-0.8-0.2c-0.5-0.2-0.7-0.5-0.7-1c0-0.5,0.5-0.8,0.8-1
	c0.2,0,0.3,0,0.3,0c10.8,0,21.7,0,32.7,0c0.5,0,1,0,1.2,0.5c0.3,0.5,0,1.2-0.5,1.4c-0.3,0-0.7,0.2-1,0.2
	C40.5,10.8,35.1,10.8,29.8,10.8z"/>
<path fill="#FFFFFF" d="M29.8,20.5c-5.4,0-10.7,0-16.1,0c-0.2,0-0.2,0-0.3,0c-0.7,0-1.2-0.5-1.2-1s0.5-1,1.2-1c0.2,0,0.2,0,0.3,0
	c10.7,0,21.5,0,32.2,0c0.2,0,0.5,0,0.7,0c0.5,0.2,0.8,0.5,0.8,1s-0.3,0.8-0.8,1c-0.2,0-0.3,0-0.7,0C40.6,20.5,35.2,20.5,29.8,20.5z"
	/>
<path fill="#FFFFFF" d="M25.6,35.2c-3.9,0-8,0-11.9,0c-0.2,0-0.3,0-0.3,0c-0.7,0-1.2-0.5-1.2-1c0-0.5,0.5-1,1.2-1c0.2,0,0.3,0,0.3,0
	c8,0,15.9,0,23.9,0c0.2,0,0.3,0,0.7,0c0.5,0.2,1,0.7,1,1c0,0.5-0.5,0.8-1,1c-0.2,0-0.3,0-0.3,0C33.5,35.2,29.6,35.2,25.6,35.2z"/>
<path fill="#FFFFFF" d="M24.4,23.4c3.7,0,7.3,0,11,0c0.7,0,1.2,0.3,1.2,0.8c0,0.5-0.3,1-1,1c-0.2,0-0.5,0-0.7,0
	c-6.6,0-13.2,0-19.8,0c-0.5,0-1,0-1.5,0c-0.2,0-0.5,0-0.7,0c-0.5-0.2-0.8-0.5-0.8-1c0-0.5,0.5-0.8,1-1c0.8,0,1.7,0,2.5,0
	C18.6,23.4,21.5,23.4,24.4,23.4z"/>
<path fill="#FFFFFF" d="M37.1,30.3c-3,0-6.1,0-9.1,0c-0.8,0-1.2-0.3-1.2-1c0-0.7,0.3-1,1-1c6.1,0,12.2,0,18.3,0c0.7,0,1.2,0.3,1.2,1
	c0,0.7-0.5,1-1.2,1C43.2,30.3,40.1,30.3,37.1,30.3z"/>
<path fill="#FFFFFF" d="M22,15.6c-2.9,0-5.8,0-8.6,0c-0.7,0-1.2-0.3-1.2-1c0-0.5,0.5-1,1.2-1c5.8,0,11.5,0,17.3,0
	c0.7,0,1.2,0.3,1.2,1c0,0.7-0.3,1-1.2,1C27.8,15.6,24.9,15.6,22,15.6z"/>
<path fill="#FFFFFF" d="M40.3,15.6c-2,0-4.1,0-6.1,0c-0.7,0-1-0.3-1.2-1c0-0.7,0.3-1,1-1c4.1,0,8.1,0,12.4,0c0.7,0,1,0.3,1,1
	c0,0.7-0.3,1-1,1C44.4,15.6,42.3,15.6,40.3,15.6z"/>
<path fill="#FFFFFF" d="M19,30.3c-1.9,0-3.7,0-5.8,0c-0.7,0-1.2-0.3-1.2-1c0-0.5,0.5-1,1-1c3.9,0,7.6,0,11.5,0c0.7,0,1,0.5,1,1
	s-0.5,1-1,1C22.9,30.3,20.8,30.3,19,30.3z"/>
<path fill="#FFFFFF" d="M29.5,53.5c0.3-0.5,0.5-1.2,0.8-1.7c1-1.5,2-3,3.6-4.1c0.5-0.3,1-0.5,1.5-0.7c0.5-0.2,1,0.2,1.2,0.7
	c0.2,0.5-0.2,0.8-0.7,1.2c-2.2,1-3.6,2.9-4.6,5.1c-0.2,0.5-0.7,0.8-1.2,0.8C30,54.5,29.6,54.2,29.5,53.5z"/>
<path fill="#FFFFFF" d="M42.7,23.4c1.2,0,2.4,0,3.7,0c0.7,0,1,0.3,1.2,0.8c0,0.5-0.3,1-1,1c-0.2,0-0.5,0-0.7,0c-2.2,0-4.2,0-6.4,0
	c-0.2,0-0.5,0-0.7,0c-0.5-0.2-0.8-0.5-0.8-1c0-0.5,0.5-1,1-1C40.1,23.4,41.3,23.4,42.7,23.4z"/>
<circle id="Ellipse_1_copy_17" fill="#FFFFFF" cx="26.8" cy="102" r="17"/>
<path id="III" d="M21.8,106.8H23V97h-1.2V106.8z M25.9,106.8h1.2V97h-1.2L25.9,106.8L25.9,106.8z M30,106.8h1.2V97H30L30,106.8
	L30,106.8z"/>
</svg>
